^C:\ПРОГЕРСКИЕ ПРОГИ\UE4PT1_17\X64\DEBUG\UE4PT1_17.OBJ
C:\Прогерские проги\UE4PT1_17\X64\DEBUG\UE4PT1_17.EXE
C:\Прогерские проги\UE4PT1_17\X64\DEBUG\UE4PT1_17.ILK
C:\Прогерские проги\UE4PT1_17\X64\DEBUG\UE4PT1_17.PDB
